module_controller.vcd
$date
	Mon Jun 29 16:49:00 2026
$end
$version
	Icarus Verilog
$end
$timescale
	1s
$end
$scope module tb_controller $end
$var wire 1 ! shift $end
$var wire 1 " load $end
$var wire 1 # done $end
$var wire 1 $ count_en $end
$var wire 1 % clear $end
$var wire 1 & add_en $end
$var reg 1 ' clk $end
$var reg 1 ( do_add $end
$var reg 1 ) expected_add_en $end
$var reg 1 * expected_clear $end
$var reg 1 + expected_count_en $end
$var reg 1 , expected_done $end
$var reg 1 - expected_load $end
$var reg 1 . expected_shift $end
$var reg 1 / last $end
$var reg 1 0 rst $end
$var reg 1 1 start $end
$scope module dut $end
$var wire 1 ' clk $end
$var wire 1 ( do_add $end
$var wire 1 / last $end
$var wire 1 0 rst $end
$var wire 1 1 start $end
$var reg 1 2 add_en $end
$var reg 1 3 clear $end
$var reg 1 4 count_en $end
$var reg 1 5 done $end
$var reg 1 6 load $end
$var reg 3 7 next_state [2:0] $end
$var reg 1 8 shift $end
$var reg 3 9 state [2:0] $end
$upscope $end
$scope task apply_values $end
$var reg 1 : do_add_ $end
$var reg 1 ; last_ $end
$var reg 1 < rst_ $end
$var reg 1 = start_ $end
$upscope $end
$scope task checker_scoreboard $end
$upscope $end
$upscope $end
$enddefinitions $end
$comment Show the parameter values. $end
$dumpall
$end
#0
$dumpvars
0=
1<
0;
0:
b0 9
08
b0 7
06
05
04
03
02
01
10
0/
0.
0-
0,
0+
0*
0)
0(
0'
0&
0%
0$
0#
0"
0!
$end
#5
b1 7
11
00
1=
0<
1'
#10
0'
#15
1%
13
1"
16
b1 9
b10 7
1*
1-
01
0=
1'
#17
0*
0-
#20
0'
#25
b10 9
b11 7
0%
03
0"
06
1(
1:
1'
#30
0'
#35
b100 7
1&
12
b11 9
1)
1'
#37
0)
#40
0'
#45
b10 7
1$
14
1!
18
0&
02
b100 9
1+
1.
1'
#50
0'
#55
b10 9
b100 7
0$
04
0!
08
0(
0:
1'
#60
0'
#65
b10 7
1$
14
1!
18
b100 9
1'
#67
b101 7
1$
14
1!
18
1/
1;
0+
0.
#70
0'
#75
b0 7
1#
15
0$
04
0!
08
b101 9
1,
1'
#80
0'
#85
0#
05
b0 9
1'
