tb_seq_multiplier.vcd
$date
	Mon Jun 29 16:55:45 2026
$end
$version
	Icarus Verilog
$end
$timescale
	1s
$end
$scope module tb_seq_multiplier $end
$var wire 16 ! product [15:0] $end
$var wire 1 " done $end
$var reg 8 # a [7:0] $end
$var reg 8 $ b [7:0] $end
$var reg 1 % clk $end
$var reg 1 & rst $end
$var reg 1 ' start $end
$scope module dut $end
$var wire 8 ( a [7:0] $end
$var wire 8 ) b [7:0] $end
$var wire 1 % clk $end
$var wire 1 & rst $end
$var wire 1 ' start $end
$var wire 9 * sum [8:0] $end
$var wire 1 + shift $end
$var wire 16 , product [15:0] $end
$var wire 1 - load $end
$var wire 1 . last $end
$var wire 1 / done $end
$var wire 1 0 do_add $end
$var wire 1 1 count_en $end
$var wire 4 2 count [3:0] $end
$var wire 1 3 clear $end
$var wire 1 4 add_en $end
$var wire 8 5 Q [7:0] $end
$var wire 8 6 M [7:0] $end
$var wire 9 7 A [8:0] $end
$scope module U1 $end
$var wire 8 8 a_in [7:0] $end
$var wire 8 9 b_in [7:0] $end
$var wire 1 % clk $end
$var wire 1 & rst $end
$var wire 9 : sum [8:0] $end
$var wire 1 + shift $end
$var wire 1 - load $end
$var wire 1 4 add_en $end
$var reg 9 ; A [8:0] $end
$var reg 8 < M [7:0] $end
$var reg 8 = Q [7:0] $end
$upscope $end
$scope module U2 $end
$var wire 1 % clk $end
$var wire 1 & rst $end
$var wire 1 . last $end
$var wire 1 1 count_en $end
$var wire 1 3 clear $end
$var reg 4 > count [3:0] $end
$upscope $end
$scope module U3 $end
$var wire 9 ? A [8:0] $end
$var wire 8 @ M [7:0] $end
$var wire 1 A Q_lsb $end
$var wire 1 0 do_add $end
$var wire 9 B sum [8:0] $end
$upscope $end
$scope module U4 $end
$var wire 1 % clk $end
$var wire 1 0 do_add $end
$var wire 1 . last $end
$var wire 1 & rst $end
$var wire 1 ' start $end
$var reg 1 4 add_en $end
$var reg 1 3 clear $end
$var reg 1 1 count_en $end
$var reg 1 / done $end
$var reg 1 - load $end
$var reg 3 C next_state [2:0] $end
$var reg 1 + shift $end
$var reg 3 D state [2:0] $end
$upscope $end
$upscope $end
$scope task apply_inputs $end
$var reg 8 E a_in [7:0] $end
$var reg 8 F b_in [7:0] $end
$upscope $end
$scope task apply_reset $end
$upscope $end
$scope task checker_scoreboard $end
$var reg 16 G expected_product [15:0] $end
$upscope $end
$upscope $end
$enddefinitions $end
$comment Show the parameter values. $end
$dumpall
$end
#0
$dumpvars
bx G
bx F
bx E
bx D
bx C
bx B
xA
bx @
bx ?
bx >
bx =
bx <
bx ;
bx :
b0 9
b0 8
bx 7
bx 6
bx 5
04
03
bx 2
01
x0
0/
x.
0-
bx ,
0+
bx *
b0 )
b0 (
0'
1&
0%
b0 $
b0 #
0"
b0 !
$end
#5
00
0A
b0 C
b0 ,
b0 5
b0 =
b0 *
b0 :
b0 B
b0 6
b0 <
b0 @
b0 7
b0 ;
b0 ?
0.
b0 2
b0 >
b0 D
1%
#10
0%
#15
b1011 F
b1101 E
0&
1%
#20
0%
#25
b1 C
1'
b1011 $
b1011 )
b1011 9
b1101 #
b1101 (
b1101 8
1%
#30
0%
#35
13
1-
b1 D
b10 C
0'
1%
#40
0%
#45
10
1A
b11 C
03
0-
b1011 !
b1011 ,
b1011 5
b1011 =
b1101 *
b1101 :
b1101 B
b1101 6
b1101 <
b1101 @
b10 D
1%
#50
0%
#55
b100 C
14
b11 D
1%
#60
0%
#65
b110100001011 !
b110100001011 ,
b10 C
11
1+
04
b11010 *
b11010 :
b11010 B
b1101 7
b1101 ;
b1101 ?
b100 D
1%
#70
0%
#75
b11 C
01
0+
b10 D
b1 2
b1 >
b10011 *
b10011 :
b10011 B
b110 7
b110 ;
b110 ?
b11010000101 !
b11010000101 ,
b10000101 5
b10000101 =
1%
#80
0%
#85
b100 C
14
b11 D
1%
#90
0%
#95
b10 C
11
1+
04
b1001110000101 !
b1001110000101 ,
b100 D
b100000 *
b100000 :
b100000 B
b10011 7
b10011 ;
b10011 ?
1%
#100
0%
#105
00
0A
b100 C
01
0+
b10110 *
b10110 :
b10110 B
b1001 7
b1001 ;
b1001 ?
b100111000010 !
b100111000010 ,
b11000010 5
b11000010 =
b10 2
b10 >
b10 D
1%
#110
0%
#115
b10 C
11
1+
b100 D
1%
#120
0%
#125
10
1A
b11 C
01
0+
b10001 *
b10001 :
b10001 B
b100 7
b100 ;
b100 ?
b10011100001 !
b10011100001 ,
b11100001 5
b11100001 =
b11 2
b11 >
b10 D
1%
#130
0%
#135
b100 C
14
b11 D
1%
#140
0%
#145
b1000111100001 !
b1000111100001 ,
b10 C
11
1+
04
b11110 *
b11110 :
b11110 B
b10001 7
b10001 ;
b10001 ?
b100 D
1%
#150
0%
#155
b100 C
01
0+
00
0A
b10 D
b100 2
b100 >
b10101 *
b10101 :
b10101 B
b1000 7
b1000 ;
b1000 ?
b100011110000 !
b100011110000 ,
b11110000 5
b11110000 =
1%
#160
0%
#165
b10 C
11
1+
b100 D
1%
#170
0%
#175
b100 C
01
0+
b10 D
b101 2
b101 >
b10001 *
b10001 :
b10001 B
b100 7
b100 ;
b100 ?
b10001111000 !
b10001111000 ,
b1111000 5
b1111000 =
1%
#180
0%
#185
b10 C
11
1+
b100 D
1%
#190
0%
#195
b100 C
01
0+
b10 D
b110 2
b110 >
b1111 *
b1111 :
b1111 B
b10 7
b10 ;
b10 ?
b1000111100 !
b1000111100 ,
b111100 5
b111100 =
1%
#200
0%
#205
b10 C
11
1+
b100 D
1%
#210
0%
#215
b100 C
01
0+
b10 D
1.
b111 2
b111 >
b1110 *
b1110 :
b1110 B
b1 7
b1 ;
b1 ?
b100011110 !
b100011110 ,
b11110 5
b11110 =
1%
#220
0%
#225
b101 C
11
1+
b100 D
1%
#230
0%
#235
b10001111 G
b0 C
1"
1/
01
0+
10
1A
b101 D
0.
b1000 2
b1000 >
b1101 *
b1101 :
b1101 B
b0 7
b0 ;
b0 ?
b10001111 !
b10001111 ,
b10001111 5
b10001111 =
1%
#240
0%
#245
0"
0/
b0 D
b0 F
b0 E
1%
#250
0%
#255
b1 C
1'
b0 $
b0 )
b0 9
b0 #
b0 (
b0 8
1%
#260
0%
#265
13
1-
b1 D
b10 C
0'
1%
#270
0%
#275
b100 C
03
0-
00
0A
b10 D
b0 2
b0 >
b0 !
b0 ,
b0 5
b0 =
b0 *
b0 :
b0 B
b0 6
b0 <
b0 @
1%
#280
0%
#285
b10 C
11
1+
b100 D
1%
#290
0%
#295
b100 C
01
0+
b10 D
b1 2
b1 >
1%
#300
0%
#305
b10 C
11
1+
b100 D
1%
#310
0%
#315
b100 C
01
0+
b10 D
b10 2
b10 >
1%
#320
0%
#325
b10 C
11
1+
b100 D
1%
#330
0%
#335
b100 C
01
0+
b10 D
b11 2
b11 >
1%
#340
0%
#345
b10 C
11
1+
b100 D
1%
#350
0%
#355
b100 C
01
0+
b10 D
b100 2
b100 >
1%
#360
0%
#365
b10 C
11
1+
b100 D
1%
#370
0%
#375
b100 C
01
0+
b10 D
b101 2
b101 >
1%
#380
0%
#385
b10 C
11
1+
b100 D
1%
#390
0%
#395
b100 C
01
0+
b10 D
b110 2
b110 >
1%
#400
0%
#405
b10 C
11
1+
b100 D
1%
#410
0%
#415
b100 C
01
0+
b10 D
1.
b111 2
b111 >
1%
#420
0%
#425
b101 C
11
1+
b100 D
1%
#430
0%
#435
b0 G
b0 C
1"
1/
01
0+
b101 D
0.
b1000 2
b1000 >
1%
#440
0%
#445
0"
0/
b0 D
b11111111 F
b11111111 E
1%
#450
0%
#455
b1 C
1'
b11111111 $
b11111111 )
b11111111 9
b11111111 #
b11111111 (
b11111111 8
1%
#460
0%
#465
13
1-
b1 D
b10 C
0'
1%
#470
0%
#475
b11 C
03
0-
10
1A
b10 D
b0 2
b0 >
b11111111 !
b11111111 ,
b11111111 5
b11111111 =
b11111111 *
b11111111 :
b11111111 B
b11111111 6
b11111111 <
b11111111 @
1%
#480
0%
#485
b100 C
14
b11 D
1%
#490
0%
#495
b10 C
11
1+
04
b1111111111111111 !
b1111111111111111 ,
b100 D
b111111110 *
b111111110 :
b111111110 B
b11111111 7
b11111111 ;
b11111111 ?
1%
#500
0%
#505
b111111111111111 !
b111111111111111 ,
b11 C
01
0+
b101111110 *
b101111110 :
b101111110 B
b1111111 7
b1111111 ;
b1111111 ?
b1 2
b1 >
b10 D
1%
#510
0%
#515
b100 C
14
b11 D
1%
#520
0%
#525
b111111011111111 !
b111111011111111 ,
b10 C
11
1+
04
b1111101 *
b1111101 :
b1111101 B
b101111110 7
b101111110 ;
b101111110 ?
b100 D
1%
#530
0%
#535
b11 C
01
0+
b10 D
b10 2
b10 >
b110111110 *
b110111110 :
b110111110 B
b10111111 7
b10111111 ;
b10111111 ?
b1011111101111111 !
b1011111101111111 ,
b1111111 5
b1111111 =
1%
#540
0%
#545
b100 C
14
b11 D
1%
#550
0%
#555
b10 C
11
1+
04
b1011111001111111 !
b1011111001111111 ,
b100 D
b10111101 *
b10111101 :
b10111101 B
b110111110 7
b110111110 ;
b110111110 ?
1%
#560
0%
#565
b11 C
01
0+
b111011110 *
b111011110 :
b111011110 B
b11011111 7
b11011111 ;
b11011111 ?
b1101111100111111 !
b1101111100111111 ,
b111111 5
b111111 =
b11 2
b11 >
b10 D
1%
#570
0%
#575
b100 C
14
b11 D
1%
#580
0%
#585
b1101111000111111 !
b1101111000111111 ,
b10 C
11
1+
04
b11011101 *
b11011101 :
b11011101 B
b111011110 7
b111011110 ;
b111011110 ?
b100 D
1%
#590
0%
#595
b11 C
01
0+
b10 D
b100 2
b100 >
b111101110 *
b111101110 :
b111101110 B
b11101111 7
b11101111 ;
b11101111 ?
b1110111100011111 !
b1110111100011111 ,
b11111 5
b11111 =
1%
#600
0%
#605
b100 C
14
b11 D
1%
#610
0%
#615
b10 C
11
1+
04
b1110111000011111 !
b1110111000011111 ,
b100 D
b11101101 *
b11101101 :
b11101101 B
b111101110 7
b111101110 ;
b111101110 ?
1%
#620
0%
#625
b11 C
01
0+
b111110110 *
b111110110 :
b111110110 B
b11110111 7
b11110111 ;
b11110111 ?
b1111011100001111 !
b1111011100001111 ,
b1111 5
b1111 =
b101 2
b101 >
b10 D
1%
#630
0%
#635
b100 C
14
b11 D
1%
#640
0%
#645
b1111011000001111 !
b1111011000001111 ,
b10 C
11
1+
04
b11110101 *
b11110101 :
b11110101 B
b111110110 7
b111110110 ;
b111110110 ?
b100 D
1%
#650
0%
#655
b11 C
01
0+
b10 D
b110 2
b110 >
b111111010 *
b111111010 :
b111111010 B
b11111011 7
b11111011 ;
b11111011 ?
b1111101100000111 !
b1111101100000111 ,
b111 5
b111 =
1%
#660
0%
#665
b100 C
14
b11 D
1%
#670
0%
#675
b10 C
11
1+
04
b1111101000000111 !
b1111101000000111 ,
b100 D
b11111001 *
b11111001 :
b11111001 B
b111111010 7
b111111010 ;
b111111010 ?
1%
#680
0%
#685
b11 C
01
0+
b111111100 *
b111111100 :
b111111100 B
b11111101 7
b11111101 ;
b11111101 ?
b1111110100000011 !
b1111110100000011 ,
b11 5
b11 =
1.
b111 2
b111 >
b10 D
1%
#690
0%
#695
b100 C
14
b11 D
1%
#700
0%
#705
b1111110000000011 !
b1111110000000011 ,
b101 C
11
1+
04
b11111011 *
b11111011 :
b11111011 B
b111111100 7
b111111100 ;
b111111100 ?
b100 D
1%
#710
0%
#715
b1111111000000001 G
b0 C
1"
1/
01
0+
b101 D
0.
b1000 2
b1000 >
b111111101 *
b111111101 :
b111111101 B
b11111110 7
b11111110 ;
b11111110 ?
b1111111000000001 !
b1111111000000001 ,
b1 5
b1 =
1%
#720
0%
#725
0"
0/
b0 D
b1 E
1%
#730
0%
#735
b1 C
1'
b1 #
b1 (
b1 8
1%
#740
0%
#745
13
1-
b1 D
b10 C
0'
1%
#750
0%
#755
b11 C
03
0-
b10 D
b0 2
b0 >
b11111111 !
b11111111 ,
b11111111 5
b11111111 =
b1 6
b1 <
b1 @
b1 *
b1 :
b1 B
b0 7
b0 ;
b0 ?
1%
#760
0%
#765
b100 C
14
b11 D
1%
#770
0%
#775
b10 C
11
1+
04
b111111111 !
b111111111 ,
b100 D
b10 *
b10 :
b10 B
b1 7
b1 ;
b1 ?
1%
#780
0%
#785
b11111111 !
b11111111 ,
b11 C
01
0+
b1 *
b1 :
b1 B
b0 7
b0 ;
b0 ?
b1 2
b1 >
b10 D
1%
#790
0%
#795
b100 C
14
b11 D
1%
#800
0%
#805
b111111111 !
b111111111 ,
b10 C
11
1+
04
b10 *
b10 :
b10 B
b1 7
b1 ;
b1 ?
b100 D
1%
#810
0%
#815
b11 C
01
0+
b11111111 !
b11111111 ,
b10 D
b10 2
b10 >
b1 *
b1 :
b1 B
b0 7
b0 ;
b0 ?
1%
#820
0%
#825
b100 C
14
b11 D
1%
#830
0%
#835
b10 C
11
1+
04
b111111111 !
b111111111 ,
b100 D
b10 *
b10 :
b10 B
b1 7
b1 ;
b1 ?
1%
#840
0%
#845
b11111111 !
b11111111 ,
b11 C
01
0+
b1 *
b1 :
b1 B
b0 7
b0 ;
b0 ?
b11 2
b11 >
b10 D
1%
#850
0%
#855
b100 C
14
b11 D
1%
#860
0%
#865
b111111111 !
b111111111 ,
b10 C
11
1+
04
b10 *
b10 :
b10 B
b1 7
b1 ;
b1 ?
b100 D
1%
#870
0%
#875
b11 C
01
0+
b11111111 !
b11111111 ,
b10 D
b100 2
b100 >
b1 *
b1 :
b1 B
b0 7
b0 ;
b0 ?
1%
#880
0%
#885
b100 C
14
b11 D
1%
#890
0%
#895
b10 C
11
1+
04
b111111111 !
b111111111 ,
b100 D
b10 *
b10 :
b10 B
b1 7
b1 ;
b1 ?
1%
#900
0%
#905
b11111111 !
b11111111 ,
b11 C
01
0+
b1 *
b1 :
b1 B
b0 7
b0 ;
b0 ?
b101 2
b101 >
b10 D
1%
#910
0%
#915
b100 C
14
b11 D
1%
#920
0%
#925
b111111111 !
b111111111 ,
b10 C
11
1+
04
b10 *
b10 :
b10 B
b1 7
b1 ;
b1 ?
b100 D
1%
#930
0%
#935
b11 C
01
0+
b11111111 !
b11111111 ,
b10 D
b110 2
b110 >
b1 *
b1 :
b1 B
b0 7
b0 ;
b0 ?
1%
#940
0%
#945
b100 C
14
b11 D
1%
#950
0%
#955
b10 C
11
1+
04
b111111111 !
b111111111 ,
b100 D
b10 *
b10 :
b10 B
b1 7
b1 ;
b1 ?
1%
#960
0%
#965
b11111111 !
b11111111 ,
b11 C
01
0+
b1 *
b1 :
b1 B
b0 7
b0 ;
b0 ?
1.
b111 2
b111 >
b10 D
1%
#970
0%
#975
b100 C
14
b11 D
1%
#980
0%
#985
b111111111 !
b111111111 ,
b101 C
11
1+
04
b10 *
b10 :
b10 B
b1 7
b1 ;
b1 ?
b100 D
1%
#990
0%
#995
b11111111 G
b0 C
1"
1/
01
0+
b11111111 !
b11111111 ,
b101 D
0.
b1000 2
b1000 >
b1 *
b1 :
b1 B
b0 7
b0 ;
b0 ?
1%
#1000
0%
#1005
0"
0/
b0 D
b10 F
b10000000 E
1%
#1010
0%
#1015
b1 C
1'
b10 $
b10 )
b10 9
b10000000 #
b10000000 (
b10000000 8
1%
#1020
0%
#1025
13
1-
b1 D
b10 C
0'
1%
#1030
0%
#1035
b100 C
03
0-
00
0A
b10 D
b0 2
b0 >
b10 !
b10 ,
b10 5
b10 =
b10000000 *
b10000000 :
b10000000 B
b10000000 6
b10000000 <
b10000000 @
1%
#1040
0%
#1045
b10 C
11
1+
b100 D
1%
#1050
0%
#1055
b11 C
01
0+
10
1A
b10 D
b1 2
b1 >
b1 !
b1 ,
b1 5
b1 =
1%
#1060
0%
#1065
b100 C
14
b11 D
1%
#1070
0%
#1075
b10 C
11
1+
04
b1000000000000001 !
b1000000000000001 ,
b100 D
b100000000 *
b100000000 :
b100000000 B
b10000000 7
b10000000 ;
b10000000 ?
1%
#1080
0%
#1085
00
0A
b100 C
01
0+
b11000000 *
b11000000 :
b11000000 B
b1000000 7
b1000000 ;
b1000000 ?
b100000000000000 !
b100000000000000 ,
b0 5
b0 =
b10 2
b10 >
b10 D
1%
#1090
0%
#1095
b10 C
11
1+
b100 D
1%
#1100
0%
#1105
b10000000000000 !
b10000000000000 ,
b100 C
01
0+
b10100000 *
b10100000 :
b10100000 B
b100000 7
b100000 ;
b100000 ?
b11 2
b11 >
b10 D
1%
#1110
0%
#1115
b10 C
11
1+
b100 D
1%
#1120
0%
#1125
b1000000000000 !
b1000000000000 ,
b100 C
01
0+
b10010000 *
b10010000 :
b10010000 B
b10000 7
b10000 ;
b10000 ?
b100 2
b100 >
b10 D
1%
#1130
0%
#1135
b10 C
11
1+
b100 D
1%
#1140
0%
#1145
b100000000000 !
b100000000000 ,
b100 C
01
0+
b10001000 *
b10001000 :
b10001000 B
b1000 7
b1000 ;
b1000 ?
b101 2
b101 >
b10 D
1%
#1150
0%
#1155
b10 C
11
1+
b100 D
1%
#1160
0%
#1165
b10000000000 !
b10000000000 ,
b100 C
01
0+
b10000100 *
b10000100 :
b10000100 B
b100 7
b100 ;
b100 ?
b110 2
b110 >
b10 D
1%
#1170
0%
#1175
b10 C
11
1+
b100 D
1%
#1180
0%
#1185
b1000000000 !
b1000000000 ,
b100 C
01
0+
b10000010 *
b10000010 :
b10000010 B
b10 7
b10 ;
b10 ?
1.
b111 2
b111 >
b10 D
1%
#1190
0%
#1195
b101 C
11
1+
b100 D
1%
#1200
0%
#1205
b100000000 G
b100000000 !
b100000000 ,
b0 C
1"
1/
01
0+
b10000001 *
b10000001 :
b10000001 B
b1 7
b1 ;
b1 ?
0.
b1000 2
b1000 >
b101 D
1%
#1210
0%
#1215
0"
0/
b0 D
1%
#1220
0%
#1225
b1 C
1'
b11 $
b11 )
b11 9
b101 #
b101 (
b101 8
1%
#1230
0%
#1235
13
1-
b1 D
b10 C
0'
1%
#1240
0%
#1245
b0 !
b0 ,
b0 C
03
0-
b0 6
b0 <
b0 @
b0 *
b0 :
b0 B
b0 7
b0 ;
b0 ?
b0 2
b0 >
b0 D
1&
1%
#1250
0%
#1255
0&
1%
